#blogR - Data wrangling with dplyr
…
Figure 1: Meet the Palmer penguins. Artwork by @allison_horst.

arrange()

The first dplyr function is arrange().

One thing that I like in the dplyr functions, is that they represent the actions of what they pretend to do. For instance, arrange() will literally arrange the dataset based in one or more columns, at the ascending or descending order (default is ascending).

In the example below, we are sorting the dataset based on the name of the species:

penguins |> 
    arrange(species)

# A tibble: 344 × 8
   species island    bill_length_mm bill_depth_mm flipper_length_mm body_mass_g
   <fct>   <fct>              <dbl>         <dbl>             <int>       <int>
 1 Adelie  Torgersen           39.1          18.7               181        3750
 2 Adelie  Torgersen           39.5          17.4               186        3800
 3 Adelie  Torgersen           40.3          18                 195        3250
 4 Adelie  Torgersen           NA            NA                  NA          NA
 5 Adelie  Torgersen           36.7          19.3               193        3450
 6 Adelie  Torgersen           39.3          20.6               190        3650
 7 Adelie  Torgersen           38.9          17.8               181        3625
 8 Adelie  Torgersen           39.2          19.6               195        4675
 9 Adelie  Torgersen           34.1          18.1               193        3475
10 Adelie  Torgersen           42            20.2               190        4250
# … with 334 more rows, and 2 more variables: sex <fct>, year <int>

If you want to know more about the pipe (|>), check my previous post (in brazilian portuguese).

Now, let’s arrange the dataset based on the island by descending order, and species by ascending order:

penguins |> 
    arrange(desc(island), species)

# A tibble: 344 × 8
   species island    bill_length_mm bill_depth_mm flipper_length_mm body_mass_g
   <fct>   <fct>              <dbl>         <dbl>             <int>       <int>
 1 Adelie  Torgersen           39.1          18.7               181        3750
 2 Adelie  Torgersen           39.5          17.4               186        3800
 3 Adelie  Torgersen           40.3          18                 195        3250
 4 Adelie  Torgersen           NA            NA                  NA          NA
 5 Adelie  Torgersen           36.7          19.3               193        3450
 6 Adelie  Torgersen           39.3          20.6               190        3650
 7 Adelie  Torgersen           38.9          17.8               181        3625
 8 Adelie  Torgersen           39.2          19.6               195        4675
 9 Adelie  Torgersen           34.1          18.1               193        3475
10 Adelie  Torgersen           42            20.2               190        4250
# … with 334 more rows, and 2 more variables: sex <fct>, year <int>

The two variables above were alphabetically sorted, now we can try the same using the body_mass_g numeric variable:

penguins |> 
    arrange(body_mass_g)

# A tibble: 344 × 8
   species   island    bill_length_mm bill_depth_mm flipper_length_… body_mass_g
   <fct>     <fct>              <dbl>         <dbl>            <int>       <int>
 1 Chinstrap Dream               46.9          16.6              192        2700
 2 Adelie    Biscoe              36.5          16.6              181        2850
 3 Adelie    Biscoe              36.4          17.1              184        2850
 4 Adelie    Biscoe              34.5          18.1              187        2900
 5 Adelie    Dream               33.1          16.1              178        2900
 6 Adelie    Torgersen           38.6          17                188        2900
 7 Chinstrap Dream               43.2          16.6              187        2900
 8 Adelie    Biscoe              37.9          18.6              193        2925
 9 Adelie    Dream               37.5          18.9              179        2975
10 Adelie    Dream               37            16.9              185        3000
# … with 334 more rows, and 2 more variables: sex <fct>, year <int>

The lightest measured penguin weighed 2,700 g, it was from the Chinstrap species from the Dream Island.

What about the heaviest?

penguins |> 
    arrange(desc(body_mass_g))

# A tibble: 344 × 8
   species island bill_length_mm bill_depth_mm flipper_length_mm body_mass_g
   <fct>   <fct>           <dbl>         <dbl>             <int>       <int>
 1 Gentoo  Biscoe           49.2          15.2               221        6300
 2 Gentoo  Biscoe           59.6          17                 230        6050
 3 Gentoo  Biscoe           51.1          16.3               220        6000
 4 Gentoo  Biscoe           48.8          16.2               222        6000
 5 Gentoo  Biscoe           45.2          16.4               223        5950
 6 Gentoo  Biscoe           49.8          15.9               229        5950
 7 Gentoo  Biscoe           48.4          14.6               213        5850
 8 Gentoo  Biscoe           49.3          15.7               217        5850
 9 Gentoo  Biscoe           55.1          16                 230        5850
10 Gentoo  Biscoe           49.5          16.2               229        5800
# … with 334 more rows, and 2 more variables: sex <fct>, year <int>
…
The result is a filtered dataset containing only 9 penguins.

Now we want to filter only the female in the penguins data:

penguins |> 
    filter(sex == "female")

# A tibble: 165 × 8
   species island    bill_length_mm bill_depth_mm flipper_length_mm body_mass_g
   <fct>   <fct>              <dbl>         <dbl>             <int>       <int>
 1 Adelie  Torgersen           39.5          17.4               186        3800
 2 Adelie  Torgersen           40.3          18                 195        3250
 3 Adelie  Torgersen           36.7          19.3               193        3450
 4 Adelie  Torgersen           38.9          17.8               181        3625
 5 Adelie  Torgersen           41.1          17.6               182        3200
 6 Adelie  Torgersen           36.6          17.8               185        3700
 7 Adelie  Torgersen           38.7          19                 195        3450
 8 Adelie  Torgersen           34.4          18.4               184        3325
 9 Adelie  Biscoe              37.8          18.3               174        3400
10 Adelie  Biscoe              35.9          19.2               189        3800
# … with 155 more rows, and 2 more variables: sex <fct>, year <int>
…
